91711912
Cook
Mary
FT
MATH112 46
ELEC113 53
CSCI102 79
IACT114 48
16171829
Hendley
Mavis
FT
IACT114 57
MATH112 54
CSCI102 54
CSCI114 70
38473517
Grey
Jim
PT
IACT114 56
ELEC113 75
61832845
Smith
Paul
FT
CSCI102 55
MATH112 56
ELEC113 67
CSCI114 65
85761889
Smith
Chris
PT
CSCI114 57
CSCI102 62
77643477
Jackson
Chris
FT
IACT114 56
ELEC113 68
MATH112 69
CSCI114 64
27284319
Jackson
Mary
FT
MATH112 57
CSCI102 56
ELEC113 65
IACT114 69
67655748
Gray
Jim
PT
CSCI102 48
ELEC113 78
46282299
Jackson
Joe
PT
ELEC113 49
CSCI114 42
26726332
Mathews
Mavis
FT
CSCI102 49
ELEC113 45
MATH112 79
IACT114 71
18888211
Gray
Chris
FT
IACT114 67
CSCI114 45
MATH112 63
CSCI102 65
89632421
Harvey
Mary
FT
CSCI114 76
CSCI102 66
ELEC113 62
MATH112 42
62632845
Hendley
Jim
PT
ELEC113 43
IACT114 54
58446269
Smith
Mavis
PT
IACT114 72
CSCI102 64
58328755
Hendley
Harry
FT
CSCI114 72
IACT114 62
MATH112 70
CSCI102 48
34951874
Hendley
Robert
PT
CSCI102 62
CSCI114 67
17481371
Jones
Mary
PT
CSCI114 73
CSCI102 59
13939422
Gray
Mary
PT
MATH112 69
CSCI114 69
28725367
Grey
Mary
FT
IACT114 58
ELEC113 78
CSCI102 47
CSCI114 53
77367422
Gray
Mavis
FT
MATH112 47
ELEC113 60
CSCI114 77
CSCI102 51
69426867
Mathews
Harry
FT
CSCI114 43
MATH112 76
IACT114 61
CSCI102 45
99732941
Jackson
Robert
PT
IACT114 77
ELEC113 76
93247168
Smith
Harry
PT
ELEC113 70
MATH112 73
29575529
Harvey
Joe
FT
IACT114 59
MATH112 48
ELEC113 73
CSCI102 66
72317479
Gray
John
PT
ELEC113 59
CSCI114 55
75896249
Grey
Chris
FT
IACT114 61
CSCI114 70
ELEC113 73
CSCI102 43
84892893
Harvey
Mary
PT
ELEC113 42
IACT114 69
64429239
Jones
Chris
PT
CSCI102 48
IACT114 56
72785976
Grey
Pam
FT
ELEC113 68
IACT114 61
CSCI102 53
MATH112 70
15156612
Gray
Chris
PT
MATH112 51
CSCI102 71
26756792
Hendley
Mavis
PT
ELEC113 72
MATH112 63
15718917
Mathews
Jim
FT
CSCI114 51
ELEC113 78
MATH112 61
CSCI102 48
98346258
Jones
Mavis
FT
CSCI114 77
MATH112 50
ELEC113 57
IACT114 41
12363952
Johns
Mary
PT
IACT114 44
MATH112 57
58633679
Harvey
Pam
PT
ELEC113 66
CSCI102 43
86634623
Jackson
John
PT
IACT114 55
MATH112 66
19615622
Grey
Mavis
FT
ELEC113 41
CSCI102 77
MATH112 52
CSCI114 43
71111485
Harvey
Pam
FT
MATH112 52
ELEC113 73
IACT114 61
CSCI114 67
29312411
Johns
Harry
PT
IACT114 43
ELEC113 67
33681896
Smith
James
PT
IACT114 42
CSCI102 72
61492373
Gray
Harry
PT
CSCI114 67
MATH112 56
15366894
Hendley
Mary
PT
MATH112 63
IACT114 52
23683989
Johns
Robert
FT
CSCI114 78
CSCI102 64
MATH112 76
ELEC113 43
83671536
Gray
Chris
FT
ELEC113 67
MATH112 58
IACT114 70
CSCI102 44
61348813
Hendley
Robert
FT
IACT114 46
CSCI102 79
MATH112 76
ELEC113 66
31328572
Hendley
Chris
FT
IACT114 72
CSCI114 50
MATH112 67
CSCI102 75
95496552
Smith
Joe
FT
ELEC113 54
IACT114 58
MATH112 52
CSCI102 67
94582893
Johns
James
FT
CSCI102 45
ELEC113 62
MATH112 57
CSCI114 49
22677476
Johns
John
PT
MATH112 65
IACT114 61
59811354
Gray
Pam
PT
ELEC113 56
IACT114 57
21123456
White
John
FT
CSCI102 77
CSCI103 77
CSCI114 66
MATH112 53
